{
	"StartTime":
	{
		"TimeMultiplier":20,
		"Year":2019,
		"Month":9,
		"Day":23,
		"Hour":21,
		"Minute":53,
		"Second":14
	},

	"Locations":
	{
		"Test":
		{
			"Foloc":"test",
			"PosX":100,
			"PosY":100
		}
		
	}
	
}